{
    "code": 200,
	"pagination":{
		"page":1,
		"size":10,
		"totalPage":15,
		"total":149
	},
    "data": [{
		"id": 1001,
		"name":"论资本1"
	},{
		"id": 1002,
		"name":"论资本2"
	},{
		"id": 1003,
		"name":"论资本3333"
	}]
}
